{
	"extensions": [
    "core/bytecoin.json",
    "print-genesis-tx.json",
    "genesis-block-reward.json",
		"blockchain-explorer.json",
    "enable-cors.json",
		"simplewallet-import-keys.json",
    "simplewallet-export-keys.json",
    "walletd-extension.json",
    "bug-fixes.json"
  ],
	"base_coin":{
		"name":"charnanote",
		"git":"https://github.com/charnacoin/charnanote.git"
	},
	"core":{
		"CRYPTONOTE_NAME":"charnacoin",
		"CRYPTONOTE_PUBLIC_ADDRESS_BASE58_PREFIX":70,
		"P2P_DEFAULT_PORT":18804,
		"RPC_DEFAULT_PORT":18805,
		"SEED_NODES":[
			"192.227.174.200:18804",
			"192.227.174.201:18804",
			"192.227.174.202:18804",
			"107.172.253.245:18804",
			"192.210.234.164:18804"
		],
    "CHECKPOINTS":[],
		"P2P_STAT_TRUSTED_PUB_KEY":"8f80f9a5a434a9f1510d13336228debfee9c918ce505efe225d8c94d045fa115",
		"GENESIS_COINBASE_TX_HEX":"011401ff0001c0d7c4d3bcaefe0f0214fa0d4db41374e4e86887a41b7a72a2bcaea2cd98d2f4770445cbd5c6b8066821019246bdce6a92663d04cd9f582a2f7e5de55e3c37e990cbbb3be220fa31da8572",
		"BYTECOIN_NETWORK":"8523b2c9-b92a-b3fd-4748-7c0d7837c6b6",
		"MONEY_SUPPLY":"99999999900000000",
		"GENESIS_BLOCK_REWARD":"8999999991000000",
		"EMISSION_SPEED_FACTOR":19,
		"DIFFICULTY_TARGET":60,
		"MINIMUM_FEE":1000,
		"SYNC_FROM_ZERO":1,
		"DEFAULT_DUST_THRESHOLD":1000,
		"CRYPTONOTE_DISPLAY_DECIMAL_POINT":8,
		"CRYPTONOTE_MINED_MONEY_UNLOCK_WINDOW":20,
		"CRYPTONOTE_BLOCK_GRANTED_FULL_REWARD_ZONE":100000,
		"UPGRADE_HEIGHT":1
	}
}
